{
    "@graph": [
        {
            "@id": "_:b0",
            "sh:path": {
                "@id": "imf:hasAttribute"
            },
            "sh:node": {
                "@id": "http://example.com/example/MediaDatasheet"
            },
            "sh:minCount": {
                "@value": "0",
                "@type": "xsd:integer"
            }
        },
        {
            "@id": "http://example.com/example/MediaDatasheet",
            "sh:property": {
                "@id": "_:b19"
            },
            "skos:prefLabel": "Media datasheet",
            "rdfs:subClassOf": {
                "@id": "imf:Attribute"
            },
            "@type": [
                "sh:NodeShape",
                "rdfs:Class",
                "imf:AttributeType"
            ]
        },
        {
            "@id": "http://example.com/example/Dimension",
            "sh:property": [
                {
                    "@id": "_:b1"
                },
                {
                    "@id": "_:b2"
                },
                {
                    "@id": "_:b3"
                }
            ],
            "rdfs:subClassOf": {
                "@id": "imf:Block"
            },
            "@type": [
                "sh:NodeShape",
                "rdfs:Class",
                "imf:BlockType"
            ]
        },
        {
            "@id": "_:b1",
            "sh:path": {
                "@id": "imf:hasAttribute"
            },
            "sh:node": {
                "@id": "http://example.com/example/Length"
            },
            "sh:minCount": {
                "@value": "1",
                "@type": "xsd:integer"
            }
        },
        {
            "@id": "_:b2",
            "sh:path": {
                "@id": "imf:hasAttribute"
            },
            "sh:node": {
                "@id": "http://example.com/example/Height"
            },
            "sh:minCount": {
                "@value": "1",
                "@type": "xsd:integer"
            }
        },
        {
            "@id": "_:b3",
            "sh:path": {
                "@id": "imf:hasAttribute"
            },
            "sh:node": {
                "@id": "http://example.com/example/Width"
            },
            "sh:minCount": {
                "@value": "1",
                "@type": "xsd:integer"
            }
        },
        {
            "@id": "_:b4",
            "sh:path": {
                "@id": "imf:uom"
            },
            "sh:minCount": {
                "@value": "1",
                "@type": "xsd:integer"
            },
            "sh:maxCount": {
                "@value": "1",
                "@type": "xsd:integer"
            }
        },
        {
            "@id": "_:b5",
            "sh:path": {
                "@id": "imf:hasAttribute"
            },
            "sh:node": {
                "@id": "http://example.com/example/Power"
            },
            "sh:minCount": {
                "@value": "1",
                "@type": "xsd:integer"
            }
        },
        {
            "@id": "http://example.com/example/Power",
            "sh:property": [
                {
                    "@id": "_:b72"
                },
                {
                    "@id": "_:b45"
                }
            ],
            "skos:prefLabel": "Power, UoM",
            "rdfs:subClassOf": {
                "@id": "imf:Attribute"
            },
            "@type": [
                "sh:NodeShape",
                "rdfs:Class",
                "imf:AttributeType"
            ]
        },
        {
            "@id": "_:b6",
            "sh:path": {
                "@id": "imf:medium"
            },
            "sh:hasValue": {
                "@id": "http://example.com/rdl/Water"
            }
        },
        {
            "@id": "http://example.com/example/RotationEnergyTerminal",
            "sh:property": [
                {
                    "@id": "_:b7"
                },
                {
                    "@id": "_:b5"
                },
                {
                    "@id": "_:b0"
                },
                {
                    "@id": "_:b8"
                },
                {
                    "@id": "_:b9"
                }
            ],
            "rdfs:subClassOf": {
                "@id": "imf:Terminal"
            },
            "@type": [
                "sh:NodeShape",
                "rdfs:Class",
                "imf:TerminalType"
            ]
        },
        {
            "@id": "_:b7",
            "sh:path": {
                "@id": "imf:hasAttribute"
            },
            "sh:node": {
                "@id": "http://example.com/example/RPM"
            },
            "sh:minCount": {
                "@value": "1",
                "@type": "xsd:integer"
            }
        },
        {
            "@id": "_:b8",
            "sh:path": {
                "@id": "imf:medium"
            },
            "sh:hasValue": {
                "@id": "http://example.com/rdl/RotationEnergy"
            }
        },
        {
            "@id": "_:b9",
            "sh:path": {
                "@id": "imf:hasAspect"
            },
            "sh:hasValue": {
                "@id": "imf:functionAspect"
            }
        },
        {
            "@id": "_:b10",
            "sh:path": {
                "@id": "imf:uom"
            },
            "sh:minCount": {
                "@value": "1",
                "@type": "xsd:integer"
            },
            "sh:maxCount": {
                "@value": "1",
                "@type": "xsd:integer"
            }
        },
        {
            "@id": "_:b11",
            "sh:path": {
                "@id": "imf:predicate"
            },
            "sh:hasValue": {
                "@id": "http://example.com/rdl/noiseRequirement"
            }
        },
        {
            "@id": "_:b12",
            "sh:path": {
                "@id": "imf:predicate"
            },
            "sh:hasValue": {
                "@id": "http://example.com/rdl/length"
            }
        },
        {
            "@id": "_:b13",
            "sh:path": {
                "@id": "imf:value"
            },
            "sh:minInclusive": {
                "@value": "10",
                "@type": "xsd:integer"
            },
            "sh:minCount": {
                "@value": "1",
                "@type": "xsd:integer"
            },
            "sh:maxInclusive": {
                "@value": "100",
                "@type": "xsd:integer"
            },
            "sh:maxCount": {
                "@value": "1",
                "@type": "xsd:integer"
            },
            "sh:datatype": {
                "@id": "xsd:integer"
            }
        },
        {
            "@id": "_:b14",
            "sh:path": {
                "@id": "imf:hasAspect"
            },
            "sh:hasValue": {
                "@id": "imf:functionAspect"
            }
        },
        {
            "@id": "http://example.com/example/RPM",
            "sh:property": [
                {
                    "@id": "_:b15"
                },
                {
                    "@id": "_:b10"
                }
            ],
            "skos:prefLabel": "RPM, UoM",
            "rdfs:subClassOf": {
                "@id": "imf:Attribute"
            },
            "@type": [
                "sh:NodeShape",
                "rdfs:Class",
                "imf:AttributeType"
            ]
        },
        {
            "@id": "_:b15",
            "sh:path": {
                "@id": "imf:predicate"
            },
            "sh:hasValue": {
                "@id": "http://example.com/rdl/RPM"
            }
        },
        {
            "@id": "http://example.com/example/RelativeEast",
            "sh:property": [
                {
                    "@id": "_:b16"
                },
                {
                    "@id": "_:b17"
                }
            ],
            "skos:prefLabel": "Relative East, UoM",
            "rdfs:subClassOf": {
                "@id": "imf:Attribute"
            },
            "@type": [
                "sh:NodeShape",
                "rdfs:Class",
                "imf:AttributeType"
            ]
        },
        {
            "@id": "_:b16",
            "sh:path": {
                "@id": "imf:predicate"
            },
            "sh:hasValue": {
                "@id": "http://example.com/rdl/RelativeEast"
            }
        },
        {
            "@id": "_:b17",
            "sh:path": {
                "@id": "imf:uom"
            },
            "sh:minCount": {
                "@value": "1",
                "@type": "xsd:integer"
            },
            "sh:maxCount": {
                "@value": "1",
                "@type": "xsd:integer"
            }
        },
        {
            "@id": "_:b18",
            "sh:path": {
                "@id": "imf:hasAttribute"
            },
            "sh:node": {
                "@id": "http://example.com/example/SuctionPressure"
            },
            "sh:minCount": {
                "@value": "1",
                "@type": "xsd:integer"
            }
        },
        {
            "@id": "http://example.com/example/SuctionPressure",
            "sh:property": [
                {
                    "@id": "_:b80"
                },
                {
                    "@id": "_:b82"
                }
            ],
            "skos:prefLabel": "Suction pressure, UoM",
            "rdfs:subClassOf": {
                "@id": "imf:Attribute"
            },
            "@type": [
                "sh:NodeShape",
                "rdfs:Class",
                "imf:AttributeType"
            ]
        },
        {
            "@id": "_:b19",
            "sh:path": {
                "@id": "imf:predicate"
            },
            "sh:hasValue": {
                "@id": "http://example.com/rdl/mediaDatasheet"
            }
        },
        {
            "@id": "_:b20",
            "sh:path": {
                "@id": "imf:uom"
            },
            "sh:minCount": {
                "@value": "1",
                "@type": "xsd:integer"
            },
            "sh:maxCount": {
                "@value": "1",
                "@type": "xsd:integer"
            }
        },
        {
            "@id": "_:b23",
            "sh:path": {
                "@id": "imf:predicate"
            },
            "sh:hasValue": {
                "@id": "http://example.com/rdl/applicationStandard"
            }
        },
        {
            "@id": "_:b24",
            "sh:path": {
                "@id": "imf:hasAttribute"
            },
            "sh:node": {
                "@id": "http://example.com/example/Fluid"
            },
            "sh:name": "fluid attribute",
            "sh:minCount": {
                "@value": "1",
                "@type": "xsd:integer"
            },
            "sh:maxCount": {
                "@value": "1",
                "@type": "xsd:integer"
            },
            "sh:description": "The permissible liquid type the pumping function can process"
        },
        {
            "@id": "http://example.com/example/Fluid",
            "sh:property": {
                "@id": "_:b70"
            },
            "skos:prefLabel": "Fluid",
            "rdfs:subClassOf": {
                "@id": "imf:Attribute"
            },
            "@type": [
                "sh:NodeShape",
                "rdfs:Class",
                "imf:AttributeType"
            ],
            "dc:description": "the type of fluid"
        },
        {
            "@id": "_:b25",
            "sh:path": {
                "@id": "imf:medium"
            },
            "sh:hasValue": {
                "@id": "http://example.com/rdl/WaterMedia"
            }
        },
        {
            "@id": "_:b26",
            "sh:path": {
                "@id": "imf:uom"
            },
            "sh:minCount": {
                "@value": "1",
                "@type": "xsd:integer"
            },
            "sh:maxCount": {
                "@value": "1",
                "@type": "xsd:integer"
            }
        },
        {
            "@id": "_:b27",
            "sh:path": {
                "@id": "imf:predicate"
            },
            "sh:hasValue": {
                "@id": "http://data.posccaesar.org/rdl/RDS354194"
            }
        },
        {
            "@id": "http://example.com/example/NoiseReq",
            "sh:property": {
                "@id": "_:b11"
            },
            "rdfs:subClassOf": {
                "@id": "imf:Attribute"
            },
            "@type": [
                "sh:NodeShape",
                "rdfs:Class",
                "imf:AttributeType"
            ]
        },
        {
            "@id": "http://example.com/example/RelativeNorth",
            "sh:property": [
                {
                    "@id": "_:b28"
                },
                {
                    "@id": "_:b29"
                }
            ],
            "skos:prefLabel": "Relative North, UoM",
            "rdfs:subClassOf": {
                "@id": "imf:Attribute"
            },
            "@type": [
                "sh:NodeShape",
                "rdfs:Class",
                "imf:AttributeType"
            ]
        },
        {
            "@id": "_:b28",
            "sh:path": {
                "@id": "imf:predicate"
            },
            "sh:hasValue": {
                "@id": "http://example.com/rdl/RelativeNorth"
            }
        },
        {
            "@id": "_:b29",
            "sh:path": {
                "@id": "imf:uom"
            },
            "sh:minCount": {
                "@value": "1",
                "@type": "xsd:integer"
            },
            "sh:maxCount": {
                "@value": "1",
                "@type": "xsd:integer"
            }
        },
        {
            "@id": "http://example.com/example/LiquidPumpingFunction",
            "sh:property": [
                {
                    "@id": "_:b30"
                },
                {
                    "@id": "_:b31"
                },
                {
                    "@id": "_:b32"
                },
                {
                    "@id": "_:b33"
                },
                {
                    "@id": "_:b34"
                },
                {
                    "@id": "_:b14"
                },
                {
                    "@id": "_:b35"
                },
                {
                    "@id": "_:b36"
                },
                {
                    "@id": "_:b37"
                },
                {
                    "@id": "_:b24"
                },
                {
                    "@id": "_:b38"
                },
                {
                    "@id": "_:b39"
                },
                {
                    "@id": "_:b40"
                },
                {
                    "@id": "_:b41"
                },
                {
                    "@id": "_:b18"
                },
                {
                    "@id": "_:b42"
                }
            ],
            "@type": [
                "imf:BlockType",
                "rdfs:Class",
                "sh:NodeShape"
            ],
            "skos:prefLabel": "Pumping, liquid velocity",
            "rdfs:subClassOf": {
                "@id": "imf:Block"
            },
            "dc:description": "Standard type for liquid pumping function"
        },
        {
            "@id": "_:b30",
            "sh:path": {
                "@id": "imf:hasAttribute"
            },
            "sh:node": {
                "@id": "http://example.com/example/PumpingPower"
            },
            "sh:minCount": {
                "@value": "1",
                "@type": "xsd:integer"
            }
        },
        {
            "@id": "_:b31",
            "sh:path": {
                "@id": "imf:hasAttribute"
            },
            "sh:node": {
                "@id": "http://example.com/example/AppStandard"
            },
            "sh:minCount": {
                "@value": "0",
                "@type": "xsd:integer"
            }
        },
        {
            "@id": "_:b32",
            "sh:path": {
                "@id": "imf:classifier"
            },
            "sh:hasValue": {
                "@id": "http://example.com/rdl/RDS4233125"
            }
        },
        {
            "@id": "_:b33",
            "sh:path": {
                "@id": "imf:hasInputTerminal"
            },
            "sh:node": {
                "@id": "http://example.com/example/WaterPumpingTerminal"
            },
            "sh:minCount": {
                "@value": "1",
                "@type": "xsd:integer"
            }
        },
        {
            "@id": "_:b34",
            "sh:path": {
                "@id": "imf:hasInputTerminal"
            },
            "sh:node": {
                "@id": "http://example.com/example/RotationEnergyTerminal"
            },
            "sh:minCount": {
                "@value": "1",
                "@type": "xsd:integer"
            }
        },
        {
            "@id": "_:b35",
            "sh:path": {
                "@id": "imf:purpose"
            },
            "sh:hasValue": {
                "@id": "http://example.com/rdl/Pumping"
            }
        },
        {
            "@id": "_:b36",
            "sh:path": {
                "@id": "imf:symbol"
            },
            "sh:hasValue": {
                "@id": "http://example.com/rdl/Symbol-SP402"
            }
        },
        {
            "@id": "_:b37",
            "sh:path": {
                "@id": "imf:hasOutputTerminal"
            },
            "sh:node": {
                "@id": "http://example.com/example/WaterPumpingTerminal"
            },
            "sh:minCount": {
                "@value": "1",
                "@type": "xsd:integer"
            }
        },
        {
            "@id": "_:b38",
            "sh:path": {
                "@id": "imf:hasAttribute"
            },
            "sh:node": {
                "@id": "http://example.com/example/PressureDelta"
            },
            "sh:minCount": {
                "@value": "1",
                "@type": "xsd:integer"
            }
        },
        {
            "@id": "_:b39",
            "sh:path": {
                "@id": "imf:hasAttribute"
            },
            "sh:node": {
                "@id": "http://example.com/example/Pressure"
            },
            "sh:minCount": {
                "@value": "1",
                "@type": "xsd:integer"
            }
        },
        {
            "@id": "_:b40",
            "sh:path": {
                "@id": "imf:hasAttribute"
            },
            "sh:node": {
                "@id": "http://example.com/example/ClientReq"
            },
            "sh:minCount": {
                "@value": "0",
                "@type": "xsd:integer"
            }
        },
        {
            "@id": "_:b41",
            "sh:path": {
                "@id": "imf:hasAttribute"
            },
            "sh:node": {
                "@id": "http://example.com/example/Flowrate"
            },
            "sh:minCount": {
                "@value": "1",
                "@type": "xsd:integer"
            }
        },
        {
            "@id": "_:b42",
            "sh:path": {
                "@id": "imf:hasAttribute"
            },
            "sh:node": {
                "@id": "http://example.com/example/NoiseReq"
            },
            "sh:minCount": {
                "@value": "0",
                "@type": "xsd:integer"
            }
        },
        {
            "@id": "http://example.com/example/Width",
            "sh:property": [
                {
                    "@id": "_:b43"
                },
                {
                    "@id": "_:b44"
                }
            ],
            "skos:prefLabel": "Width, UoM",
            "rdfs:subClassOf": {
                "@id": "imf:Attribute"
            },
            "@type": [
                "sh:NodeShape",
                "rdfs:Class",
                "imf:AttributeType"
            ]
        },
        {
            "@id": "_:b43",
            "sh:path": {
                "@id": "imf:predicate"
            },
            "sh:hasValue": {
                "@id": "http://example.com/rdl/width"
            }
        },
        {
            "@id": "_:b44",
            "sh:path": {
                "@id": "imf:uom"
            },
            "sh:minCount": {
                "@value": "1",
                "@type": "xsd:integer"
            },
            "sh:maxCount": {
                "@value": "1",
                "@type": "xsd:integer"
            }
        },
        {
            "@id": "_:b45",
            "sh:path": {
                "@id": "imf:uom"
            },
            "sh:minCount": {
                "@value": "1",
                "@type": "xsd:integer"
            },
            "sh:maxCount": {
                "@value": "1",
                "@type": "xsd:integer"
            }
        },
        {
            "@id": "_:b46",
            "sh:path": {
                "@id": "imf:symbol"
            },
            "sh:hasValue": {
                "@id": "http://example.com/rdl/Symbol-SP106"
            }
        },
        {
            "@id": "_:b47",
            "sh:path": {
                "@id": "imf:purpose"
            },
            "sh:hasValue": {
                "@id": "http://example.com/rdl/Location"
            }
        },
        {
            "@id": "http://example.com/example/Height",
            "sh:property": [
                {
                    "@id": "_:b56"
                },
                {
                    "@id": "_:b57"
                }
            ],
            "skos:prefLabel": "Height, UoM",
            "rdfs:subClassOf": {
                "@id": "imf:Attribute"
            },
            "@type": [
                "sh:NodeShape",
                "rdfs:Class",
                "imf:AttributeType"
            ]
        },
        {
            "@id": "_:b48",
            "sh:path": {
                "@id": "imf:hasOutputTerminal"
            },
            "sh:node": {
                "@id": "http://example.com/example/TestTerminal1"
            },
            "sh:minCount": {
                "@value": "3",
                "@type": "xsd:integer"
            },
            "sh:maxCount": {
                "@value": "5",
                "@type": "xsd:integer"
            }
        },
        {
            "@id": "http://example.com/example/TestTerminal1",
            "sh:property": {
                "@id": "_:b25"
            },
            "skos:prefLabel": "Test terminal 1",
            "rdfs:subClassOf": {
                "@id": "imf:Terminal"
            },
            "@type": [
                "sh:NodeShape",
                "rdfs:Class",
                "imf:TerminalType"
            ],
            "dc:description": "This is just for testing."
        },
        {
            "@id": "_:b49",
            "sh:path": {
                "@id": "imf:symbol"
            },
            "sh:hasValue": {
                "@id": "http://example.com/rdl/Symbol-SP402"
            }
        },
        {
            "@id": "_:b50",
            "sh:path": {
                "@id": "imf:hasAttribute"
            },
            "sh:node": {
                "@id": "http://example.com/example/Elevation"
            },
            "sh:minCount": {
                "@value": "1",
                "@type": "xsd:integer"
            }
        },
        {
            "@id": "http://example.com/example/Elevation",
            "sh:property": [
                {
                    "@id": "_:b65"
                },
                {
                    "@id": "_:b61"
                }
            ],
            "skos:prefLabel": "Elevation",
            "rdfs:subClassOf": {
                "@id": "imf:Attribute"
            },
            "@type": [
                "sh:NodeShape",
                "rdfs:Class",
                "imf:AttributeType"
            ]
        },
        {
            "@id": "http://example.com/example/Flowrate",
            "sh:property": [
                {
                    "@id": "_:b52"
                },
                {
                    "@id": "_:b20"
                }
            ],
            "skos:prefLabel": "Flowrate, vol, UoM",
            "rdfs:subClassOf": {
                "@id": "imf:Attribute"
            },
            "@type": [
                "sh:NodeShape",
                "rdfs:Class",
                "imf:AttributeType"
            ]
        },
        {
            "@id": "_:b52",
            "sh:path": {
                "@id": "imf:predicate"
            },
            "sh:hasValue": {
                "@id": "http://example.com/rdl/flowrate"
            }
        },
        {
            "@id": "http://example.com/example/PumpingPower",
            "sh:property": [
                {
                    "@id": "_:b62"
                },
                {
                    "@id": "_:b4"
                }
            ],
            "skos:prefLabel": "Pumping power",
            "rdfs:subClassOf": {
                "@id": "imf:Attribute"
            },
            "@type": [
                "sh:NodeShape",
                "rdfs:Class",
                "imf:AttributeType"
            ]
        },
        {
            "@id": "http://example.com/example/Pressure",
            "sh:property": [
                {
                    "@id": "_:b27"
                },
                {
                    "@id": "_:b53"
                }
            ],
            "skos:prefLabel": "Pressure, UoM",
            "rdfs:subClassOf": {
                "@id": "imf:Attribute"
            },
            "@type": [
                "sh:NodeShape",
                "rdfs:Class",
                "imf:AttributeType"
            ]
        },
        {
            "@id": "_:b53",
            "sh:path": {
                "@id": "imf:uom"
            },
            "sh:minCount": {
                "@value": "1",
                "@type": "xsd:integer"
            },
            "sh:maxCount": {
                "@value": "1",
                "@type": "xsd:integer"
            }
        },
        {
            "@id": "_:b54",
            "sh:path": {
                "@id": "imf:predicate"
            },
            "sh:hasValue": {
                "@id": "http://example.com/rdl/pressureDelta"
            }
        },
        {
            "@id": "_:b55",
            "sh:path": {
                "@id": "imf:hasAspect"
            },
            "sh:hasValue": {
                "@id": "imf:locationAspect"
            }
        },
        {
            "@id": "_:b56",
            "sh:path": {
                "@id": "imf:predicate"
            },
            "sh:hasValue": {
                "@id": "http://example.com/rdl/height"
            }
        },
        {
            "@id": "_:b57",
            "sh:path": {
                "@id": "imf:uom"
            },
            "sh:minCount": {
                "@value": "1",
                "@type": "xsd:integer"
            },
            "sh:maxCount": {
                "@value": "1",
                "@type": "xsd:integer"
            }
        },
        {
            "@id": "_:b58",
            "sh:path": {
                "@id": "imf:classifier"
            },
            "sh:hasValue": {
                "@id": "http://example.com/rdl/RDS4233125"
            }
        },
        {
            "@id": "_:b59",
            "sh:path": {
                "@id": "imf:hasAttribute"
            },
            "sh:node": {
                "@id": "http://example.com/example/TestAttributeZ"
            },
            "sh:minCount": {
                "@value": "1",
                "@type": "xsd:integer"
            },
            "sh:maxCount": {
                "@value": "1",
                "@type": "xsd:integer"
            }
        },
        {
            "@id": "http://example.com/example/TestAttributeZ",
            "sh:property": {
                "@id": "_:b13"
            },
            "rdfs:subClassOf": {
                "@id": "imf:Attribute"
            },
            "@type": [
                "sh:NodeShape",
                "rdfs:Class",
                "imf:AttributeType"
            ],
            "dc:description": "This is just for testing."
        },
        {
            "@id": "_:b60",
            "sh:path": {
                "@id": "imf:value"
            },
            "sh:minCount": {
                "@value": "1",
                "@type": "xsd:integer"
            },
            "sh:maxCount": {
                "@value": "1",
                "@type": "xsd:integer"
            },
            "sh:in": {
                "@list": [
                    "A",
                    "B",
                    "C"
                ]
            }
        },
        {
            "@id": "_:b61",
            "sh:path": {
                "@id": "imf:uom"
            },
            "sh:minCount": {
                "@value": "1",
                "@type": "xsd:integer"
            },
            "sh:maxCount": {
                "@value": "1",
                "@type": "xsd:integer"
            }
        },
        {
            "@id": "_:b62",
            "sh:path": {
                "@id": "imf:predicate"
            },
            "sh:hasValue": {
                "@id": "http://example.com/rdl/pumpingPower"
            }
        },
        {
            "@id": "_:b63",
            "sh:path": {
                "@id": "imf:hasAspect"
            },
            "sh:hasValue": {
                "@id": "imf:locationAspect"
            }
        },
        {
            "@id": "http://example.com/example/WaterPumpingTerminal",
            "sh:property": [
                {
                    "@id": "_:b69"
                },
                {
                    "@id": "_:b77"
                },
                {
                    "@id": "_:b6"
                },
                {
                    "@id": "_:b76"
                },
                {
                    "@id": "_:b58"
                },
                {
                    "@id": "_:b78"
                }
            ],
            "@type": [
                "sh:NodeShape",
                "rdfs:Class",
                "imf:TerminalType"
            ],
            "rdfs:subClassOf": {
                "@id": "imf:Terminal"
            }
        },
        {
            "@id": "http://example.com/example/PressureDelta",
            "sh:property": [
                {
                    "@id": "_:b54"
                },
                {
                    "@id": "_:b64"
                }
            ],
            "skos:prefLabel": "Pressure delta, UoM",
            "rdfs:subClassOf": {
                "@id": "imf:Attribute"
            },
            "@type": [
                "sh:NodeShape",
                "rdfs:Class",
                "imf:AttributeType"
            ]
        },
        {
            "@id": "_:b64",
            "sh:path": {
                "@id": "imf:uom"
            },
            "sh:minCount": {
                "@value": "1",
                "@type": "xsd:integer"
            },
            "sh:maxCount": {
                "@value": "1",
                "@type": "xsd:integer"
            }
        },
        {
            "@id": "_:b65",
            "sh:path": {
                "@id": "imf:predicate"
            },
            "sh:hasValue": {
                "@id": "http://example.com/rdl/Elevation"
            }
        },
        {
            "@id": "_:b66",
            "sh:path": {
                "@id": "imf:uom"
            },
            "sh:minCount": {
                "@value": "1",
                "@type": "xsd:integer"
            },
            "sh:maxCount": {
                "@value": "1",
                "@type": "xsd:integer"
            },
            "sh:class": {
                "@id": "http://example.com/rdl/FlowrateUoM"
            }
        },
        {
            "@id": "_:b67",
            "sh:path": {
                "@id": "skos:notation"
            },
            "sh:hasValue": "KR"
        },
        {
            "@id": "http://example.com/example/ProcessingArea",
            "skos:prefLabel": "Processing area",
            "rdfs:subClassOf": [
                {
                    "@id": "http://example.com/example/Dimension"
                },
                {
                    "@id": "imf:Block"
                },
                {
                    "@id": "http://example.com/example/RelativeLocation3D"
                }
            ],
            "@type": [
                "sh:NodeShape",
                "rdfs:Class",
                "imf:BlockType"
            ],
            "sh:property": [
                {
                    "@id": "_:b47"
                },
                {
                    "@id": "_:b46"
                },
                {
                    "@id": "_:b63"
                }
            ]
        },
        {
            "@id": "http://example.com/example/RelativeLocation3D",
            "sh:property": [
                {
                    "@id": "_:b50"
                },
                {
                    "@id": "_:b71"
                },
                {
                    "@id": "_:b73"
                }
            ],
            "rdfs:subClassOf": {
                "@id": "imf:Block"
            },
            "@type": [
                "sh:NodeShape",
                "rdfs:Class",
                "imf:BlockType"
            ]
        },
        {
            "@id": "_:b68",
            "sh:path": {
                "@id": "imf:purpose"
            },
            "sh:hasValue": {
                "@id": "http://example.com/rdl/Pumping"
            }
        },
        {
            "@id": "http://example.com/example/Length",
            "sh:property": [
                {
                    "@id": "_:b12"
                },
                {
                    "@id": "_:b26"
                }
            ],
            "skos:prefLabel": "Length, UoM",
            "rdfs:subClassOf": {
                "@id": "imf:Attribute"
            },
            "@type": [
                "sh:NodeShape",
                "rdfs:Class",
                "imf:AttributeType"
            ]
        },
        {
            "@id": "_:b69",
            "sh:path": {
                "@id": "imf:hasAttribute"
            },
            "sh:node": {
                "@id": "http://example.com/example/Pressure"
            },
            "sh:minCount": {
                "@value": "1",
                "@type": "xsd:integer"
            }
        },
        {
            "@id": "_:b70",
            "sh:path": {
                "@id": "imf:predicate"
            },
            "sh:hasValue": {
                "@id": "http://example.com/rdl/fluid"
            }
        },
        {
            "@id": "http://example.com/example/ClientReq",
            "sh:property": {
                "@id": "_:b84"
            },
            "rdfs:subClassOf": {
                "@id": "imf:Attribute"
            },
            "@type": [
                "sh:NodeShape",
                "rdfs:Class",
                "imf:AttributeType"
            ]
        },
        {
            "@id": "_:b71",
            "sh:path": {
                "@id": "imf:hasAttribute"
            },
            "sh:node": {
                "@id": "http://example.com/example/RelativeEast"
            },
            "sh:minCount": {
                "@value": "1",
                "@type": "xsd:integer"
            }
        },
        {
            "@id": "http://example.com/example/TestAttributeX",
            "sh:property": [
                {
                    "@id": "_:b60"
                },
                {
                    "@id": "_:b66"
                }
            ],
            "rdfs:subClassOf": {
                "@id": "imf:Attribute"
            },
            "@type": [
                "sh:NodeShape",
                "rdfs:Class",
                "imf:AttributeType"
            ],
            "dc:description": "This is just for testing."
        },
        {
            "@id": "_:b72",
            "sh:path": {
                "@id": "imf:predicate"
            },
            "sh:hasValue": {
                "@id": "http://example.com/rdl/power"
            }
        },
        {
            "@id": "_:b73",
            "sh:path": {
                "@id": "imf:hasAttribute"
            },
            "sh:node": {
                "@id": "http://example.com/example/RelativeNorth"
            },
            "sh:minCount": {
                "@value": "1",
                "@type": "xsd:integer"
            }
        },
        {
            "@id": "_:b74",
            "sh:path": {
                "@id": "imf:classifier"
            },
            "sh:hasValue": {
                "@id": "http://example.com/rdl/Pumping"
            }
        },
        {
            "@id": "_:b75",
            "sh:path": {
                "@id": "imf:symbol"
            },
            "sh:hasValue": {
                "@id": "http://example.com/rdl/Symbol-SP402"
            }
        },
        {
            "@id": "_:b76",
            "sh:path": {
                "@id": "imf:hasAttribute"
            },
            "sh:node": {
                "@id": "http://example.com/example/MediaDatasheet"
            },
            "sh:minCount": {
                "@value": "0",
                "@type": "xsd:integer"
            }
        },
        {
            "@id": "_:b77",
            "sh:path": {
                "@id": "imf:hasAspect"
            },
            "sh:hasValue": {
                "@id": "imf:functionAspect"
            }
        },
        {
            "@id": "_:b78",
            "sh:path": {
                "@id": "imf:hasAttribute"
            },
            "sh:node": {
                "@id": "http://example.com/example/Flowrate"
            },
            "sh:minCount": {
                "@value": "1",
                "@type": "xsd:integer"
            }
        },
        {
            "@id": "_:b79",
            "sh:path": {
                "@id": "imf:classifier"
            },
            "sh:hasValue": {
                "@id": "http://example.com/rdl/RDS4233125"
            }
        },
        {
            "@id": "_:b80",
            "sh:path": {
                "@id": "imf:predicate"
            },
            "sh:hasValue": {
                "@id": "http://example.com/rdl/suctionPressure"
            }
        },
        {
            "@id": "_:b81",
            "sh:path": {
                "@id": "imf:hasAspect"
            },
            "sh:hasValue": {
                "@id": "imf:functionAspect"
            }
        },
        {
            "@id": "_:b82",
            "sh:path": {
                "@id": "imf:uom"
            },
            "sh:minCount": {
                "@value": "1",
                "@type": "xsd:integer"
            },
            "sh:maxCount": {
                "@value": "1",
                "@type": "xsd:integer"
            }
        },
        {
            "@id": "http://example.com/example/TestBlockB",
            "sh:property": [
                {
                    "@id": "_:b48"
                },
                {
                    "@id": "_:b79"
                },
                {
                    "@id": "_:b81"
                },
                {
                    "@id": "_:b67"
                },
                {
                    "@id": "_:b75"
                },
                {
                    "@id": "_:b59"
                },
                {
                    "@id": "_:b83"
                },
                {
                    "@id": "_:b74"
                }
            ],
            "@type": [
                "sh:NodeShape",
                "imf:BlockType",
                "rdfs:Class"
            ],
            "skos:prefLabel": "Test block B",
            "rdfs:subClassOf": [
                {
                    "@id": "imf:Block"
                },
                {
                    "@id": "http://example.com/example/TestBlockA"
                }
            ],
            "dc:description": "This is just for testing."
        },
        {
            "@id": "_:b83",
            "sh:path": {
                "@id": "imf:hasInputTerminal"
            },
            "sh:node": {
                "@id": "http://example.com/example/TestTerminal1"
            },
            "sh:minCount": {
                "@value": "2",
                "@type": "xsd:integer"
            },
            "sh:maxCount": {
                "@value": "4",
                "@type": "xsd:integer"
            }
        },
        {
            "@id": "_:b84",
            "sh:path": {
                "@id": "imf:predicate"
            },
            "sh:hasValue": {
                "@id": "http://example.com/rdl/clientRequirement"
            }
        },
        {
            "@id": "http://example.com/example/AppStandard",
            "sh:property": {
                "@id": "_:b23"
            },
            "rdfs:subClassOf": {
                "@id": "imf:Attribute"
            },
            "@type": [
                "sh:NodeShape",
                "rdfs:Class",
                "imf:AttributeType"
            ]
        },
        {
            "@id": "http://example.com/example/LiquidPumpingLocation",
            "rdfs:subClassOf": [
                {
                    "@id": "http://example.com/example/Dimension"
                },
                {
                    "@id": "imf:Block"
                },
                {
                    "@id": "http://example.com/example/RelativeLocation3D"
                }
            ],
            "sh:property": [
                {
                    "@id": "_:b49"
                },
                {
                    "@id": "_:b55"
                },
                {
                    "@id": "_:b68"
                }
            ],
            "skos:prefLabel": "Pumping, liquid velocity",
            "@type": [
                "sh:NodeShape",
                "rdfs:Class",
                "imf:BlockType"
            ]
        }
    ],
    "@context": {
        "imf": "http://ns.imfid.org/imf#",
        "o-rdfs": "http://tpl.ottr.xyz/rdfs/0.2/",
        "o-owl-rstr": "http://tpl.ottr.xyz/owl/restriction/0.1/",
        "owl": "http://www.w3.org/2002/07/owl#",
        "xsd": "http://www.w3.org/2001/XMLSchema#",
        "skos": "http://www.w3.org/2004/02/skos/core#",
        "rdfs": "http://www.w3.org/2000/01/rdf-schema#",
        "o-imf-t-o": "http://ns.imfid.org/templates/type/owl/",
        "o-imf-t-s": "http://ns.imfid.org/templates/type/shacl/",
        "sh": "http://www.w3.org/ns/shacl#",
        "o-imf": "http://ns.imfid.org/templates/",
        "ottr": "http://ns.ottr.xyz/0.4/",
        "o-owl-ma": "http://tpl.ottr.xyz/owl/macro/0.1/",
        "vann": "http://purl.org/vocab/vann/",
        "foaf": "http://xmlns.com/foaf/0.1/",
        "o-imf-d": "http://ns.imfid.org/templates/data/",
        "o-rdf": "http://tpl.ottr.xyz/rdf/0.1/",
        "pca-plm": "http://rds.posccaesar.org/ontology/plm/rdl/",
        "pav": "http://purl.org/pav/",
        "ex": "http://example.com#",
        "rdf": "http://www.w3.org/1999/02/22-rdf-syntax-ns#",
        "o-owl-dec": "http://tpl.ottr.xyz/owl/declaration/0.1/",
        "o-owl-ax": "http://tpl.ottr.xyz/owl/axiom/0.1/",
        "vs": "http://www.w3.org/2003/06/sw-vocab-status/ns#",
        "dc": "http://purl.org/dc/elements/1.1/"
    }
}
